Health Tweet analysis
…
I will start by reading the all the 16 health tweets from news agencies.

library(dplyr)
library(tidyr)
library(purrr)
library(readr)
library(ggplot2)
library(textdata)
theme_set(theme_bw())

raw_text <- read_csv("https://raw.githubusercontent.com/yihunzeleke/data_repo/master/raw_text.csv")

raw_text

## # A tibble: 63,327 x 4
##    newsgroup date       text                                                  id
##    <chr>     <date>     <chr>                                              <dbl>
##  1 bbchealth 2015-04-09 Breast cancer risk test devised http://bbc.in/1Ci~     1
##  2 bbchealth 2015-04-08 GP workload harming care - BMA poll http://bbc.in~     1
##  3 bbchealth 2015-04-08 Short people's 'heart risk greater' http://bbc.in~     1
##  4 bbchealth 2015-04-08 New approach against HIV 'promising' http://bbc.i~     1
##  5 bbchealth 2015-04-08 Coalition 'undermined NHS' - doctors http://bbc.i~     1
##  6 bbchealth 2015-04-08 Review of case against NHS manager http://bbc.in/~     1
##  7 bbchealth 2015-04-08 VIDEO: 'All day is empty, what am I going to do?'~     1
##  8 bbchealth 2015-04-08 VIDEO: 'Overhaul needed' for end-of-life care htt~     1
##  9 bbchealth 2015-04-08 Care for dying 'needs overhaul' http://bbc.in/1Fd~     1
## 10 bbchealth 2015-04-07 VIDEO: NHS: Labour and Tory key policies http://b~     1
## # ... with 63,317 more rows
…
reg_remove <- "&amp;|&lt;|&gt;"

cleaned_text <- raw_text %>% 
  filter(!str_detect(text,"^RT")) %>%  # RT means Retweet
  mutate(text = str_remove_all(text,reg_remove)) %>% 
  #mutate(text =  str_replace_all(text,"#[a-z,A-Z]*","")) %>%  # removing hashtags
  #mutate(text =  str_replace_all(text,"@[a-z,A-Z]*","")) %>% # removing @
  mutate(text = gsub("\\s?(f|ht)(tp)(s?)(://)([^\\.]*)[\\.|/](\\S*)", "", text)) # Remove https..

cleaned_text  

## # A tibble: 55,656 x 4
##    newsgroup date       text                                                 id
##    <chr>     <date>     <chr>                                             <dbl>
##  1 bbchealth 2015-04-09 Breast cancer risk test devised                       1
##  2 bbchealth 2015-04-08 GP workload harming care - BMA poll                   1
##  3 bbchealth 2015-04-08 Short people's 'heart risk greater'                   1
##  4 bbchealth 2015-04-08 New approach against HIV 'promising'                  1
##  5 bbchealth 2015-04-08 Coalition 'undermined NHS' - doctors                  1
##  6 bbchealth 2015-04-08 Review of case against NHS manager                    1
##  7 bbchealth 2015-04-08 VIDEO: 'All day is empty, what am I going to do?'     1
##  8 bbchealth 2015-04-08 VIDEO: 'Overhaul needed' for end-of-life care         1
##  9 bbchealth 2015-04-08 Care for dying 'needs overhaul'                       1
## 10 bbchealth 2015-04-07 VIDEO: NHS: Labour and Tory key policies              1
## # ... with 55,646 more rows

  health_tweets <- cleaned_text %>% 
  unnest_tokens(word,text, token = "tweets") %>% 
  filter(!word %in% stop_words$word,
         !word %in% str_remove_all(stop_words$word, "'"),
         str_detect(word, "[a-z]")) 
health_tweets

## # A tibble: 324,880 x 4
##    newsgroup date          id word    
##    <chr>     <date>     <dbl> <chr>   
##  1 bbchealth 2015-04-09     1 breast  
##  2 bbchealth 2015-04-09     1 cancer  
##  3 bbchealth 2015-04-09     1 risk    
##  4 bbchealth 2015-04-09     1 test    
##  5 bbchealth 2015-04-09     1 devised 
##  6 bbchealth 2015-04-08     1 gp      
##  7 bbchealth 2015-04-08     1 workload
##  8 bbchealth 2015-04-08     1 harming 
##  9 bbchealth 2015-04-08     1 care    
## 10 bbchealth 2015-04-08     1 bma     
## # ... with 324,870 more rows

Words in newsgroups

Let’s explore common words in the entire dataset.

health_tweets %>% 
    count(word, sort = TRUE)

## # A tibble: 30,954 x 2
##    word         n
##    <chr>    <int>
##  1 health    4341
##  2 ebola     3410
##  3 study     2795
##  4 cancer    1925
##  5 care      1428
##  6 risk      1417
##  7 drug      1299
##  8 patients  1178
##  9 kids      1073
## 10 heart     1007
## # ... with 30,944 more rows

Most common words by newsgroup.

words_by_newsgroup <- health_tweets %>% 
  count(newsgroup, word, sort = TRUE)

words_by_newsgroup

## # A tibble: 84,413 x 3
##    newsgroup        word        n
##    <chr>            <chr>   <int>
##  1 reuters_heatlth  ebola    1241
##  2 KaiserHealthNews health    929
##  3 bbchealth        video     813
##  4 msnhealthnews    study     762
##  5 gdnhealthcare    #nhs      720
##  6 nytimeshealth    health    624
##  7 nprhealth        health    521
##  8 gdnhealthcare    nhs       518
##  9 nytimeshealth    ebola     480
## 10 KaiserHealthNews reports   464
## # ... with 84,403 more rows

Finding tf-idf within newsgroup

We see that the newsgroups to differ in terms of topic and content, and therefore the frequency of words to differ between them.

tf_idf <-  words_by_newsgroup %>% 
  bind_tf_idf(word, newsgroup,n) %>% 
  arrange(desc(tf_idf))
tf_idf

## # A tibble: 84,413 x 6
##    newsgroup        word                          n      tf   idf tf_idf
##    <chr>            <chr>                     <int>   <dbl> <dbl>  <dbl>
##  1 gdnhealthcare    #nhs                        720 0.0439   2.77 0.122 
##  2 everydayhealth   #healthtalk                 335 0.0243   2.77 0.0673
##  3 gdnhealthcare    nhs                         518 0.0316   2.08 0.0657
##  4 bbchealth        nhs                         348 0.0212   2.08 0.0441
##  5 gdnhealthcare    #viewsfromthenhsfrontline   190 0.0116   2.77 0.0321
##  6 cnnhealth        #getfit                     249 0.0119   2.08 0.0247
##  7 latimeshealth    #latfit                     205 0.00811  2.77 0.0225
##  8 KaiserHealthNews cartoon                     218 0.0101   2.08 0.0210
##  9 foxnewshealth    @newser                      88 0.00750  2.77 0.0208
## 10 usnewshealth     #usntechchat                 43 0.00717  2.77 0.0199
## # ... with 84,403 more rows
…
What newsgroups tend to be similar each other in text content? I could discover this by finding the pairwise correlation of word frequencies within each newsgroup, using pairwise_cor() function.

library(widyr)

newsgroup_cor <- words_by_newsgroup %>%
  pairwise_cor(newsgroup,  word, n, sort = TRUE)

newsgroup_cor

## # A tibble: 240 x 3
##    item1           item2           correlation
##    <chr>           <chr>                 <dbl>
##  1 nprhealth       nytimeshealth         0.836
##  2 nytimeshealth   nprhealth             0.836
##  3 latimeshealth   msnhealthnews         0.809
##  4 msnhealthnews   latimeshealth         0.809
##  5 cbchealth       nprhealth             0.807
##  6 nprhealth       cbchealth             0.807
##  7 cbchealth       reuters_heatlth       0.775
##  8 reuters_heatlth cbchealth             0.775
##  9 cbchealth       nytimeshealth         0.771
## 10 nytimeshealth   cbchealth             0.771
## # ... with 230 more rows
…
Based on this analysis, the “GoodHealth” newsgroup was the most positive. This makes sense, since it likely included many positive adjectives about health news.

Sentiment analysis by word

It’s worth looking deeper to understand why some newsgroups ended up more positive or negative than others. For that, I can examine the total positive and negative contributions of each word.

word_contribution <- health_tweets %>% 
  inner_join(get_sentiments("afinn"), by = "word") %>% 
  group_by(word) %>% 
  summarise(occurrences = n(),
            contribution = sum(value))

word_contribution

## # A tibble: 1,525 x 3
##    word      occurrences contribution
##    <chr>           <int>        <dbl>
##  1 abandon             5          -10
##  2 abandoned           8          -16
##  3 abandons            2           -4
##  4 abduction           3           -6
##  5 abilities           4            8
##  6 ability            29           58
##  7 aboard              2            2
##  8 absorbed            3            3
##  9 abuse             119         -357
## 10 abused             12          -36
## # ... with 1,515 more rows
…
These words seems reasonable as indicators of each tweets sentiment, but we can spot possible problems with the approach. “Care” could just as easily be a part of “don’t care” or a similar negative expression, and the word “Healthy” are apparently very common on the Health-Tweets but could easily be used in any contexts, positive or negative.

We may also care about which words contributed most with in each newsgroup, so we can see which newsgroup might be incorrectly estimated. We can calculate each words’ contribution to each newsgroup’s sentiment score.

top_sentiment_words <- words_by_newsgroup %>% 
  inner_join(get_sentiments("afinn"),by = "word") %>% 
  mutate(contribution = value * n / sum(n))

top_sentiment_words %>% 
  filter(newsgroup == "msnhealthnews", contribution < 0) %>% 
  top_n(10, contribution) %>% 
  arrange(desc(contribution))

## # A tibble: 39 x 5
##    newsgroup     word           n value contribution
##    <chr>         <chr>      <int> <dbl>        <dbl>
##  1 msnhealthnews admit          1    -1   -0.0000247
##  2 msnhealthnews admits         1    -1   -0.0000247
##  3 msnhealthnews affected       1    -1   -0.0000247
##  4 msnhealthnews ambivalent     1    -1   -0.0000247
##  5 msnhealthnews avert          1    -1   -0.0000247
##  6 msnhealthnews averted        1    -1   -0.0000247
##  7 msnhealthnews awaits         1    -1   -0.0000247
##  8 msnhealthnews axe            1    -1   -0.0000247
##  9 msnhealthnews bias           1    -1   -0.0000247
## 10 msnhealthnews block          1    -1   -0.0000247
## # ... with 29 more rows
…
  words_by_time

## # A tibble: 2,336 x 6
##    time_floor newsgroup     word     count time_total word_total
##    <date>     <chr>         <chr>    <int>      <int>      <int>
##  1 2013-04-01 nytimeshealth #askwell     2       1653         35
##  2 2013-04-01 nytimeshealth abortion     7       1653         48
##  3 2013-04-01 nytimeshealth africa       1       1653         54
##  4 2013-04-01 nytimeshealth age         22       1653        262
##  5 2013-04-01 nytimeshealth aids         3       1653         41
##  6 2013-04-01 nytimeshealth benefits     6       1653         45
##  7 2013-04-01 nytimeshealth blog        18       1653        227
##  8 2013-04-01 nytimeshealth books        3       1653         42
##  9 2013-04-01 nytimeshealth brain        6       1653         56
## 10 2013-04-01 nytimeshealth breast       4       1653         80
## # ... with 2,326 more rows

Each row in this data frame corresponds to one newsgroup using one word in a given time bin. The count column tells us how many times that person used that word in that time bin, the time_total column tells us how many words that person used during that time bin, and the word_total column tells us how many times that person used that word over the whole year. This is the data set we can use for modeling.

nested_data <- words_by_time %>% 
  nest(-word, -newsgroup)

nested_data

## # A tibble: 179 x 3
##    newsgroup     word     data             
##    <chr>         <chr>    <list>           
##  1 nytimeshealth #askwell <tibble [15 x 4]>
##  2 nytimeshealth abortion <tibble [12 x 4]>
##  3 nytimeshealth africa   <tibble [12 x 4]>
##  4 nytimeshealth age      <tibble [21 x 4]>
##  5 nytimeshealth aids     <tibble [14 x 4]>
##  6 nytimeshealth benefits <tibble [18 x 4]>
##  7 nytimeshealth blog     <tibble [21 x 4]>
##  8 nytimeshealth books    <tibble [19 x 4]>
##  9 nytimeshealth brain    <tibble [17 x 4]>
## 10 nytimeshealth breast   <tibble [20 x 4]>
## # ... with 169 more rows

We can think about this modeling procedure answering a question like, “Was a given word mentioned in a given time bin? Yes or no? How does the count of word mentions depend on time?”

library(purrr)

nested_model <- nested_data %>% 
  mutate(models = map(data, ~ glm(cbind(count,time_total) ~ time_floor, .,
                      family = "binomial")))
nested_model

## # A tibble: 179 x 4
##    newsgroup     word     data              models
##    <chr>         <chr>    <list>            <list>
##  1 nytimeshealth #askwell <tibble [15 x 4]> <glm> 
##  2 nytimeshealth abortion <tibble [12 x 4]> <glm> 
##  3 nytimeshealth africa   <tibble [12 x 4]> <glm> 
##  4 nytimeshealth age      <tibble [21 x 4]> <glm> 
##  5 nytimeshealth aids     <tibble [14 x 4]> <glm> 
##  6 nytimeshealth benefits <tibble [18 x 4]> <glm> 
##  7 nytimeshealth blog     <tibble [21 x 4]> <glm> 
##  8 nytimeshealth books    <tibble [19 x 4]> <glm> 
##  9 nytimeshealth brain    <tibble [17 x 4]> <glm> 
## 10 nytimeshealth breast   <tibble [20 x 4]> <glm> 
## # ... with 169 more rows
…
